…
``` r
vi(extract_model(adults_last_fit$.workflow[[1]]))
```

    ## # A tibble: 94 x 2
    ##    Variable                          Importance
    ##    <chr>                                  <dbl>
    ##  1 marital_status_Married.civ.spouse    0.255  
    ##  2 capital_gain                         0.140  
    ##  3 education_num                        0.127  
    ##  4 fnlwgt                               0.116  
    ##  5 age                                  0.101  
    ##  6 capital_loss                         0.0540 
    ##  7 hours_per_week                       0.0500 
    ##  8 occupation_Exec.managerial           0.0130 
    ##  9 occupation_Prof.specialty            0.00848
    ## 10 relationship_Wife                    0.00706
    ## # ... with 84 more rows
…
O modelo foi criado, tunado, treinado e verificado. Após estas etapas,
que dependem de muito ajuste fino durante o desenvolvimento, vamos
validar nosso modelo com a base de test criada no split inicial da base.

Como este projeto também era uma competição, geramos um arquivo final em
csv para subir no site do kaggle.

``` r
#Chegou a hora de validar com os dados fresquinhos e desconhecidos que chegaram.
adults_lr_fit <- fit(adults_workflow, data = adults)

predict(adults_lr_fit, new_data = adults_test, type = "prob")
```

    ## # A tibble: 8,140 x 2
    ##    `.pred_<=50K` `.pred_>50K`
    ##            <dbl>        <dbl>
    ##  1         0.976      0.0242 
    ##  2         0.995      0.00459
    ##  3         0.667      0.333  
    ##  4         0.882      0.118  
    ##  5         0.635      0.365  
    ##  6         0.985      0.0148 
    ##  7         0.831      0.169  
    ##  8         0.874      0.126  
    ##  9         0.984      0.0159 
    ## 10         0.426      0.574  
    ## # ... with 8,130 more rows
…
